[
	{
		"_id": 1,
		"nome": "Ramon"
	},
	{
		"_id": 2,
		"nome": "Roberto"
	},
	{
		"_id": 3,
		"nome": "Catarina"
	},
	{
		"_id": 4,
		"nome": "Alice"
	},
	{
		"_id": 5,
		"nome": "Augusto"
	},
	{
		"_id": 6,
		"nome": "Julia"
	},
	{
		"_id": 7,
		"nome": "Danrlei"
	}
]
